<svg xmlns="http://www.w3.org/2000/svg" viewBox="0 0 10 5.349">
    <path d="M9.9.1a.354.354 0 0 0-.5 0L5.007 4.5.6.1a.354.354 0 1 0-.5.5l4.643 4.643a.345.345 0 0 0 .25.1.36.36 0 0 0 .25-.1L9.889.6A.346.346 0 0 0 9.9.1z" data-name="Path 360"/>
</svg>
